-- Merging decision tree log ---
manifest
ADDED from /home/codeish/Documents/flutter-sdk/flutter/.pub-cache/hosted/pub.dartlang.org/wakelock-0.2.1+1/android/src/main/AndroidManifest.xml:1:1-3:12
INJECTED from /home/codeish/Documents/flutter-sdk/flutter/.pub-cache/hosted/pub.dartlang.org/wakelock-0.2.1+1/android/src/main/AndroidManifest.xml:1:1-3:12
INJECTED from /home/codeish/Documents/flutter-sdk/flutter/.pub-cache/hosted/pub.dartlang.org/wakelock-0.2.1+1/android/src/main/AndroidManifest.xml:1:1-3:12
	package
		ADDED from /home/codeish/Documents/flutter-sdk/flutter/.pub-cache/hosted/pub.dartlang.org/wakelock-0.2.1+1/android/src/main/AndroidManifest.xml:2:3-37
		INJECTED from /home/codeish/Documents/flutter-sdk/flutter/.pub-cache/hosted/pub.dartlang.org/wakelock-0.2.1+1/android/src/main/AndroidManifest.xml
		INJECTED from /home/codeish/Documents/flutter-sdk/flutter/.pub-cache/hosted/pub.dartlang.org/wakelock-0.2.1+1/android/src/main/AndroidManifest.xml
	xmlns:android
		ADDED from /home/codeish/Documents/flutter-sdk/flutter/.pub-cache/hosted/pub.dartlang.org/wakelock-0.2.1+1/android/src/main/AndroidManifest.xml:1:11-69
uses-sdk
INJECTED from /home/codeish/Documents/flutter-sdk/flutter/.pub-cache/hosted/pub.dartlang.org/wakelock-0.2.1+1/android/src/main/AndroidManifest.xml reason: use-sdk injection requested
INJECTED from /home/codeish/Documents/flutter-sdk/flutter/.pub-cache/hosted/pub.dartlang.org/wakelock-0.2.1+1/android/src/main/AndroidManifest.xml
INJECTED from /home/codeish/Documents/flutter-sdk/flutter/.pub-cache/hosted/pub.dartlang.org/wakelock-0.2.1+1/android/src/main/AndroidManifest.xml
	android:minSdkVersion
		INJECTED from /home/codeish/Documents/flutter-sdk/flutter/.pub-cache/hosted/pub.dartlang.org/wakelock-0.2.1+1/android/src/main/AndroidManifest.xml
		ADDED from /home/codeish/Documents/flutter-sdk/flutter/.pub-cache/hosted/pub.dartlang.org/wakelock-0.2.1+1/android/src/main/AndroidManifest.xml
		INJECTED from /home/codeish/Documents/flutter-sdk/flutter/.pub-cache/hosted/pub.dartlang.org/wakelock-0.2.1+1/android/src/main/AndroidManifest.xml
